/nethome/achintapalli3/proj1
deepthought6
Mon Nov  6 19:05:51 EST 2017
cc -pg -I./utils/ -I./utils/tictoc -g -Wall -O3 -std=gnu99 -fopenmp -c -o harness.o harness.c
cc -pg -I./utils/ -I./utils/tictoc -g -Wall -O3 -std=gnu99 -fopenmp -c -o bd.o bd.c
bd.c: In function ‘bd’:
bd.c:58: warning: unused variable ‘a’
bd.c:57: warning: unused variable ‘f’
bd.c:57: warning: unused variable ‘s’
bd.c:57: warning: unused variable ‘s2’
bd.c:52: warning: unused variable ‘p’
cc -pg -I./utils/ -I./utils/tictoc -g -Wall -O3 -std=gnu99 -fopenmp -c -o interactions.o interactions.c
interactions.c:36: warning: ‘interactions_check’ defined but not used
cc -pg -fopenmp -o harness harness.o bd.o interactions.o -lm
rm -f out.xyz && OMP_NUM_THREADS=32 OMP_PROC_BIND=spread ./harness lac1_novl2.xyz out.xyz 101
Number of particles: 257
Number of intervals to simulate: 101
Simulation box width: 20.180992
With 257 particles of radius 1 and a box width of 20.180992, the volume fraction is 0.130977.
The interaction volume is 33.5103, so we expect 1.04781 interactions per particle, 134.644 overall.
Allocating space for 5140 interactions
Done interval: 100
Time: 45.808588 for 101 intervals
Time per time step: 0.00045355
Mon Nov  6 19:06:38 EST 2017
